Are we more civilized today?
…
Your Tasks:

the column name Western_Europe$`Homicide rate in Europe over long-term (per 100,000) is not very easy to work with. Relabel it to homicides for easier use in the ggplots.

Renaming column

rename(Western_Europe, homicides = `Homicide rate in Europe over long-term (per 100,000) (homicides per 100,000 people)`)

## # A tibble: 206 x 4
##    Entity  Code   Year homicides
##    <chr>   <chr> <dbl>     <dbl>
##  1 England <NA>   1300      23  
##  2 England <NA>   1550       7  
##  3 England <NA>   1625       6  
##  4 England <NA>   1675       4  
##  5 England <NA>   1725       2  
##  6 England <NA>   1775       1  
##  7 England <NA>   1812       2  
##  8 England <NA>   1837       1.7
##  9 England <NA>   1862       1.6
## 10 England <NA>   1887       0.8
## #  with 196 more rows
…
